﻿01/20 02/18 Varsator	
02/19 03/20 Peste
03/21 04/19 Berbec
04/20 05/20 Taur
05/21 06/20 Gemeni
06/21 07/22 Rac
07/23 08/22 Leu
08/23 09/22 Fecioara
09/23 10/22 Balanta
10/23 11/21 Scorpion
11/22 12/21 Sagetator	
12/22 01/19 Capricorn